Final Project Kpop Collaboration Network
…
artist_id: This is a Spotify Artist id of the Kpop top artists. This can be used as a key when joining with artist dataframe

artist_[i]: This is a name of the artists that collaborated with Kpop top artists or the Kpop top artists themselves, which means that it might duplicate with kpop_artist_name (i is a number from 1 to 7)

artist_id_[i]: This is a Spotify Artist ID of the artists that collaborated with Kpop top artists or the Kpop top artists themselves, which means that it might duplicate with artist_id (i is a number from 1 to 7). This can be used as a key when joining with artists dataframe.

Code

collab_songs <- collab_songs %>% 
  select(c("song_name", "song_id", "kpop_artist_name", "artist_id", "artist_1", "artist_id_1", "artist_2", "artist_id_2", "artist_3", "artist_id_3", "artist_4", "artist_id_4", "artist_5", "artist_id_5", "artist_6", "artist_id_6", "artist_7", "artist_id_7", "artist_8", "artist_id_8", "artist_9", "artist_id_9", "artist_10", "artist_id_10", "artist_11", "artist_id_11", "artist_12", "artist_id_12", "artist_13", "artist_id_13"))

collab_songs

# A tibble: 1,123 × 30
   song_name     song_id kpop_…¹ artis…² artis…³ artis…⁴ artis…⁵ artis…⁶ artis…⁷
   <chr>         <chr>   <chr>   <chr>   <chr>   <chr>   <chr>   <chr>   <chr>  
 1 Angel Pt. 1 … 5qyjy0… BTS     3Nrfpe… Jimin   1oSPZh… JVKE    164Uj4… Kodak …
 2 Dreamers [Mu… 1RDvyO… BTS     3Nrfpe… Jung K… 6HaGTQ… BTS     3Nrfpe… FIFA S…
 3 Bad Decision… 0xzI1K… BTS     3Nrfpe… benny … 5CiGnK… BTS     3Nrfpe… Snoop …
 4 Left and Rig… 0mBP9X… BTS     3Nrfpe… Charli… 6VuMaD… Jung K… 6HaGTQ… BTS    
 5 My Universe … 5FvxRv… BTS     3Nrfpe… Coldpl… 4gzpq5… BTS     3Nrfpe… David …
 6 My Universe … 1Dlczm… BTS     3Nrfpe… Coldpl… 4gzpq5… BTS     3Nrfpe… Galant…
 7 My Universe … 6Lgbf4… BTS     3Nrfpe… Coldpl… 4gzpq5… BTS     3Nrfpe… <NA>   
 8 My Universe … 6BeOJP… BTS     3Nrfpe… Coldpl… 4gzpq5… BTS     3Nrfpe… SUGA   
 9 Butter - Meg… 474Vqn… BTS     3Nrfpe… Megan … 181bsR… <NA>    <NA>    <NA>   
10 Savage Love … 4TgxFM… BTS     3Nrfpe… Jawsh … 56mfhU… Jason … 07YZf4… BTS    
# … with 1,113 more rows, 21 more variables: artist_id_3 <chr>, artist_4 <chr>,
#   artist_id_4 <chr>, artist_5 <chr>, artist_id_5 <chr>, artist_6 <chr>,
#   artist_id_6 <chr>, artist_7 <chr>, artist_id_7 <chr>, artist_8 <chr>,
#   artist_id_8 <chr>, artist_9 <chr>, artist_id_9 <chr>, artist_10 <chr>,
#   artist_id_10 <chr>, artist_11 <chr>, artist_id_11 <chr>, artist_12 <chr>,
#   artist_id_12 <chr>, artist_13 <chr>, artist_id_13 <chr>, and abbreviated
#   variable names ¹​kpop_artist_name, ²​artist_id, ³​artist_1, ⁴​artist_id_1, …
…
Code

artists

# A tibble: 962 × 5
   name                                id                  top_k…¹ genre follo…²
   <chr>                               <chr>                 <dbl> <chr>   <dbl>
 1 Relax Beer                          04BxwccHO4U2wMwVLv…       0 []     2   e0
 2 KAHI                                04C0MPapc1HXpTbspJ…       0 []     0     
 3 LE                                  04JxNGSux7QdmrCvnQ…       0 []     4.2 e1
 4 Sunwoojunga                         04L3elxyr0XFua2Ek3…       0 ['k-…  9.49e4
 5 Miso                                04xEkodoWyFji8icX9…       0 ['ko…  7.97e4
 6 Symba                               06S3fr7xEES7e3QPXh…       0 []     6.66e4
 7 Tommy “TBHits” Brown                06moEoVtCKweJmGYid…       0 []     5   e0
 8 m-flo loves Sik-K & eill & 向井太一 072YnMT5EniZhvDssX…       0 []     8.64e2
 9 Sebastian Yatra                     07YUOmWljBTXwIseAU…       0 ['co…  2.15e7
10 Jason Derulo                        07YZf4WDAMNwqr4jfg…       0 ['da…  1.18e7
# … with 952 more rows, and abbreviated variable names ¹​top_kpop, ²​followers

Code

artists %>% 
  group_by(id) %>%
  summarize(n=n()) %>%
  arrange(desc(n))

# A tibble: 962 × 2
   id                         n
   <chr>                  <int>
 1 04BxwccHO4U2wMwVLvYTLO     1
 2 04C0MPapc1HXpTbspJhmWg     1
 3 04JxNGSux7QdmrCvnQowyr     1
 4 04L3elxyr0XFua2Ek3domW     1
 5 04xEkodoWyFji8icX911jM     1
 6 06moEoVtCKweJmGYid8vU7     1
 7 06S3fr7xEES7e3QPXhu3ay     1
 8 072YnMT5EniZhvDssXL2VB     1
 9 07YUOmWljBTXwIseAUd9TW     1
10 07YZf4WDAMNwqr4jfgOZ8y     1
# … with 952 more rows
…
# Clean data by removing unnecessary columns

artists <- artists %>% relocate(id, .before = name)

Code

# This is the list of the genre names that appear in artist dataframe
artists %>%
  select(genre) %>%
  separate_rows(genre, sep = ",\\s*") %>%
  mutate(genre = gsub("\\[|'|\\]", "", genre)) %>%
  arrange(genre) %>%
  count(genre)

# A tibble: 230 × 2
   genre                                 n
   <chr>                             <int>
 1 ""                                  353
 2 "a cappella"                          1
 3 "afrobeats"                           1
 4 "alt z"                               5
 5 "alternative r&b"                     2
 6 "american 21st century classical"     1
 7 "anime"                               1
 8 "art pop"                             3
 9 "asian american hip hop"              5
10 "atl hip hop"                         4
# … with 220 more rows
…
There are 349 artists whose genre is unknown. I checked them and changed region_category of some of them.

Code

print(artists %>% 
  filter(region_category == "Unknown") %>%
  arrange(desc(name)))

# A tibble: 349 × 6
   id                     name               top_kpop genre followers region_c…¹
   <chr>                  <chr>                 <dbl> <chr>     <dbl> <chr>     
 1 23aPUZaR8bESXN4UD3T2Sx 香取慎吾                  0 []        20927 Unknown   
 2 2VrDFxXbEHomf7A8Q87uRA 朴宰範                    0 []           18 Unknown   
 3 7BrydByY8Q9MZjovkvRsCP 尹美萊                    0 []          150 Unknown   
 4 76yPSQzTmeCY5fCsrMFoSw 혜미                      0 []            2 Unknown   
 5 3lTYYNwaDmW0rrsAz5aG8o 헤리티지(Heritage)        0 []           37 Unknown   
 6 1WLp3CeL7X1Ic7DTu67CCP 한겨울                    0 []            0 Unknown   
 7 7fCSy7Had5Fs540ilzxV20 트리키                    0 []          103 Unknown   
 8 76JVW7YYK3nRTVvRxUalpI 토끼                      0 []            2 Unknown   
 9 6OK3Lf8Ws6A4UdRw3lMNZo 태완                      0 []           57 Unknown   
10 0BeIulKOpcvsabwlt4u8qp 태양                      0 []         8010 Unknown   
# … with 339 more rows, and abbreviated variable name ¹​region_category
…
# Artists whose name include Hangul, I manually changed their region_category to "K-pop"
artists <- artists %>% arrange(desc(name)) %>% arrange(region_category) # row 371 - 404 are in Hangul

artists$region_category[371:404] <- "K-pop"
artists$region_category[artists$name == "nafla (나플라)"] <- "K-pop"
artists$region_category[artists$name == "MC 몽"] <- "K-pop"

Code

print(artists %>%
  filter(region_category == "Unknown" & followers > 10000) %>%
  arrange(desc(followers))) %>%
  select(c("id", "name"))

# A tibble: 55 × 6
   id                     name        top_kpop genre followers region_category
   <chr>                  <chr>          <dbl> <chr>     <dbl> <chr>          
 1 70DFixYAFPv4Pf9kgSfR9O MARK               0 []       509054 Unknown        
 2 7wFDo161xYdeaiLz3KIHoM Gallant            0 []       302064 Unknown        
 3 2FgZrgTMX6Sk0VNcOsEPmm Punch              0 []       301148 Unknown        
 4 7cEaNXXTHx3LokbjUUyHal BIG Naughty        0 []       286344 Unknown        
 5 31SBgHxc8eqZUk9MdveH42 PREP               0 []       254055 Unknown        
 6 0JOxt5QOwq0czoJxvSc5hS GASHI              0 []       235666 Unknown        
 7 2qDIR2WlcW3llkGqJWg9VJ Lolo Zouaï         0 []       210312 Unknown        
 8 79R17q4kiPsimHDtdOlN2L SEHUN              0 []       184818 Unknown        
 9 31IZdHrCZ5pRhLz4zBxN3o Riff Raff          0 []       179063 Unknown        
10 5C01hDqpEmrmDfUhX9YWsH FIFA Sound         0 []       167771 Unknown        
# … with 45 more rows

# A tibble: 55 × 2
   id                     name       
   <chr>                  <chr>      
 1 70DFixYAFPv4Pf9kgSfR9O MARK       
 2 7wFDo161xYdeaiLz3KIHoM Gallant    
 3 2FgZrgTMX6Sk0VNcOsEPmm Punch      
 4 7cEaNXXTHx3LokbjUUyHal BIG Naughty
 5 31SBgHxc8eqZUk9MdveH42 PREP       
 6 0JOxt5QOwq0czoJxvSc5hS GASHI      
 7 2qDIR2WlcW3llkGqJWg9VJ Lolo Zouaï 
 8 79R17q4kiPsimHDtdOlN2L SEHUN      
 9 31IZdHrCZ5pRhLz4zBxN3o Riff Raff  
10 5C01hDqpEmrmDfUhX9YWsH FIFA Sound 
# … with 45 more rows
…
Code

artists %>% 
  filter(region_category == "K-pop") %>%
  arrange(desc(followers)) %>% 
  select(c("name", "followers"))

# A tibble: 403 × 2
   name       followers
   <chr>          <dbl>
 1 BTS         64752045
 2 BLACKPINK   40782301
 3 TWICE       17544057
 4 j-hope      14644327
 5 RM          13576102
 6 V           13096788
 7 Agust D     11679645
 8 Stray Kids  11204838
 9 SEVENTEEN    9155169
10 Red Velvet   8364750
# … with 393 more rows
…
Code

edgelist <- edgelist %>% 
  mutate(
    regime = case_when(
      release_year < 2012 ~ "2005-2011",
      release_year >= 2012 & release_year < 2017 ~ "2012-2016",
      release_year >= 2017 & release_year < 2021 ~ "2017-2020",
      TRUE ~ "2021-"
    )) 

edgelist

# A tibble: 1,519 × 11
   From    To    song_id song_…¹ From_…² To_ar…³ Colla…⁴ Colla…⁵ relea…⁶ popul…⁷
   <chr>   <chr> <chr>   <chr>   <chr>   <chr>   <chr>   <chr>     <dbl>   <dbl>
 1 3Nrfpe… 1oSP… 5qyjy0… Angel … BTS     Jimin   K-pop   Domest…    2023      79
 2 3Nrfpe… 164U… 5qyjy0… Angel … BTS     JVKE    US or … Intern…    2023      79
 3 3Nrfpe… 46SH… 5qyjy0… Angel … BTS     Kodak … Latino  Intern…    2023      79
 4 3Nrfpe… 0Erz… 5qyjy0… Angel … BTS     NLE Ch… US or … Intern…    2023      79
 5 3Nrfpe… 7tjV… 5qyjy0… Angel … BTS     Muni L… US or … Intern…    2023      79
 6 3Nrfpe… 6HaG… 1RDvyO… Dreame… BTS     Jung K… K-pop   Domest…    2022      86
 7 3Nrfpe… 5C01… 1RDvyO… Dreame… BTS     FIFA S… US or … Intern…    2022      86
 8 3Nrfpe… 5CiG… 0xzI1K… Bad De… BTS     benny … US or … Intern…    2022      78
 9 3Nrfpe… 7hJc… 0xzI1K… Bad De… BTS     Snoop … US or … Intern…    2022      78
10 3Nrfpe… 6VuM… 0mBP9X… Left a… BTS     Charli… US or … Intern…    2022      82
# … with 1,509 more rows, 1 more variable: regime <chr>, and abbreviated
#   variable names ¹​song_name, ²​From_artists, ³​To_artists, ⁴​Collab_region1,
#   ⁵​Collab_region2, ⁶​release_year, ⁷​popularity
…
Code

edgelist

# A tibble: 1,519 × 11
   From    To    song_id song_…¹ From_…² To_ar…³ Colla…⁴ Colla…⁵ relea…⁶ popul…⁷
   <chr>   <chr> <chr>   <chr>   <chr>   <chr>   <chr>   <chr>     <dbl>   <dbl>
 1 3Nrfpe… 1oSP… 5qyjy0… Angel … BTS     Jimin   K-pop   Domest…    2023      79
 2 3Nrfpe… 164U… 5qyjy0… Angel … BTS     JVKE    US or … Intern…    2023      79
 3 3Nrfpe… 46SH… 5qyjy0… Angel … BTS     Kodak … Latino  Intern…    2023      79
 4 3Nrfpe… 0Erz… 5qyjy0… Angel … BTS     NLE Ch… US or … Intern…    2023      79
 5 3Nrfpe… 7tjV… 5qyjy0… Angel … BTS     Muni L… US or … Intern…    2023      79
 6 3Nrfpe… 6HaG… 1RDvyO… Dreame… BTS     Jung K… K-pop   Domest…    2022      86
 7 3Nrfpe… 5C01… 1RDvyO… Dreame… BTS     FIFA S… US or … Intern…    2022      86
 8 3Nrfpe… 5CiG… 0xzI1K… Bad De… BTS     benny … US or … Intern…    2022      78
 9 3Nrfpe… 7hJc… 0xzI1K… Bad De… BTS     Snoop … US or … Intern…    2022      78
10 3Nrfpe… 6VuM… 0mBP9X… Left a… BTS     Charli… US or … Intern…    2022      82
# … with 1,509 more rows, 1 more variable: regime <chr>, and abbreviated
#   variable names ¹​song_name, ²​From_artists, ³​To_artists, ⁴​Collab_region1,
#   ⁵​Collab_region2, ⁶​release_year, ⁷​popularity
…
