Final Project
…
Eventhough the different measures of centrality talks about the significance and influence of nodes, we are taking into consideration, Bonacich power and Constraint here to compare the waste output.

Code

df_bonpow <- df_degree |>
  arrange(desc(bonpow)) |>
  slice(1:5)

df_constraint <- df_degree |> arrange(desc(constraint)) |> slice(1:5)

industry_waste <- data_2011 |> select(
...1, 83:92)
industry_waste

# A tibble: 294 × 11
   ...1   Incineration Dehydration Concentration Shredding Filtration Composting
   <chr>         <dbl>       <dbl>         <dbl>     <dbl>      <dbl>      <dbl>
 1 Crop …          0           0            0          0        0         0     
 2 Lives…          0           0            0          0        0         0     
 3 Agric…          0           0            0          0        0         0     
 4 Fores…          0           0            0          0        0         0     
 5 Fishe…          0           0            0          0        0         0     
 6 Metal…          0           0            0          0        0         0     
 7 Coal …         16.7        39.7          3.98      12.2      0.253     0.0431
 8 Non-m…          0           0            0          0        0         0     
 9 Foods           0           0            0          0        0         0     
10 Bever…          0           0            0          0        0         0     
# ℹ 284 more rows
# ℹ 4 more variables: `Feed conversion` <dbl>, Gasification <dbl>,
#   `Refuse derived fuel` <dbl>, Landfill <dbl>
…
