Final Project Network Analysis: Ukraine Russia War Wheat Supply Chain Disruption
…
The Walktrap community detection algorithm was utilized to identify clusters within the network of countries trading with Ukraine. The resulting community clusters can be visualized using a bar plot. The bar plot represents the number of countries within each cluster, with the cluster labels displayed on the x-axis and the corresponding counts on the y-axis. This visualization provides an overview of the community structure and facilitates a better understanding of the trade dynamics and potential alliances within the wheat trade network involving Ukraine.

Code

year_community_country <- community_df %>% group_by(year, community) %>% 
  summarise(total_countries = n())

`summarise()` has grouped output by 'year'. You can override using the
`.groups` argument.

Code

year_community_country

# A tibble: 405 × 3
# Groups:   year [8]
    year community total_countries
   <dbl>     <dbl>           <int>
 1  2015         1              41
 2  2015         2              53
 3  2015         3               5
 4  2015         4              52
 5  2015         5               5
 6  2015         6               5
 7  2015         7               2
 8  2015         8               1
 9  2015         9               1
10  2015        10               1
# ℹ 395 more rows
…
