Week 2 Challenge
…
got_marriages<-read_csv("../posts/_data/got/got_marriages.csv")

Rows: 255 Columns: 5
── Column specification ────────────────────────────────────────────────────────
Delimiter: ","
chr (5): From, To, Type, Notes, Generation

ℹ Use `spec()` to retrieve the full column specification for this data.
ℹ Specify the column types or set `show_col_types = FALSE` to quiet this message.

Code

got_marriages

# A tibble: 255 × 5
   From      To        Type    Notes  Generation
   <chr>     <chr>     <chr>   <chr>  <chr>     
 1 Targaryen Stark     Married R+L=J  Current   
 2 Baratheon Martell   Engaged died   Current   
 3 Baratheon Stark     Engaged broken Current   
 4 Martell   Essos     Married <NA>   Current   
 5 Martell   Reach     Affair  <NA>   Current   
 6 Martell   Essos     Affair  <NA>   Current   
 7 Martell   Essos     Affair  <NA>   Current   
 8 Martell   Septa     Affair  <NA>   Current   
 9 Martell   Dorne     Affair  <NA>   Current   
10 Martell   Targaryen Married <NA>   Current   
# … with 245 more rows
…
