Week 3 Challenge
…
Rows: 200 Columns: 6
── Column specification ────────────────────────────────────────────────────────
Delimiter: ","
chr (5): Region From, From, To, Mode, Notes
dbl (1): Miles

ℹ Use `spec()` to retrieve the full column specification for this data.
ℹ Specify the column types or set `show_col_types = FALSE` to quiet this message.

Code

got_distances

# A tibble: 200 × 6
   `Region From` From          To               Miles Mode  Notes   
   <chr>         <chr>         <chr>            <dbl> <chr> <chr>   
 1 Westerlands   Casterly Rock the Golden Tooth   240 land  <NA>    
 2 Westerlands   Casterly Rock Lannisport          40 land  <NA>    
 3 Westerlands   Casterly Rock Kayce              100 land  <NA>    
 4 Westerlands   Casterly Rock Kayce               12 water <NA>    
 5 Westerlands   Casterly Rock Deep Den           240 land  Goldroad
 6 Westerlands   Deep Den      King’s Landing     590 land  Goldroad
 7 Westerlands   Kayce         Faircastle         480 raven <NA>    
 8 Westerlands   Faircastle    the Crag           115 Boat  Island  
 9 Westerlands   the Crag      Ashemark            85 land  <NA>    
10 Westerlands   Ashemark      Casterly Rock      170 land  <NA>    
# … with 190 more rows
…
