Week 4 Challenge
…
Rows: 46 Columns: 49
── Column specification ────────────────────────────────────────────────────────
Delimiter: ","
chr  (3): Current house, Former house, Name
dbl (46): Lysa Arryn, Petyr Baelish, Joffrey Baratheon, Margaery Tyrell, Ren...

ℹ Use `spec()` to retrieve the full column specification for this data.
ℹ Specify the column types or set `show_col_types = FALSE` to quiet this message.

Code

got_like_dislike

# A tibble: 46 × 49
   `Current house` `Former house` Name              `Lysa Arryn` `Petyr Baelish`
   <chr>           <chr>          <chr>                    <dbl>           <dbl>
 1 Arryn           Tully          Lysa Arryn                  NA               3
 2 Baelish         <NA>           Petyr Baelish                3              NA
 3 Lannister       Baratheon      Joffrey Baratheon            0              -1
 4 Tyrell          Baratheon      Margaery Tyrell              0               1
 5 Baratheon       <NA>           Renly Baratheon              0              -2
 6 Baratheon       <NA>           Robert Baratheon             2               1
 7 Baratheon       <NA>           Stannis Baratheon            0              -1
 8 Stark           <NA>           Brienne of Tarth             1              -1
 9 Lannister       <NA>           Bronn                        0              -1
10 Lannister       <NA>           Gregor Clegane               0              -1
# ℹ 36 more rows
# ℹ 44 more variables: `Joffrey Baratheon` <dbl>, `Margaery Tyrell` <dbl>,
#   `Renly Baratheon` <dbl>, `Robert Baratheon` <dbl>,
#   `Stannis Baratheon` <dbl>, `Brienne of Tarth` <dbl>, Bronn <dbl>,
#   `Gregor Clegane` <dbl>, `Sandor Clegane` <dbl>, `Xaro Xhoan Daxos` <dbl>,
#   Gendry <dbl>, `Balon Greyjoy` <dbl>, `Theon Greyjoy` <dbl>,
#   `Jaqen H'ghar` <dbl>, Hodor <dbl>, `Khal Drogo` <dbl>, …
…
